Data Wrangling Workshop
…
Notice how we have multiple rows for Precious Achiuwa, an observation for his statistics with the Raptors, one for his statistics with the Knicks, and another for his combined statistics. We will address this later when we get more comfortable with more functions.

Filter

The filter() function is used to filter the dataframe for observations, given a certain condition. Let’s suppose we’re working on a project about veteran production. For this, we might want to only analyze players over the age of 32, for example. Let’s filter the dataset to include only players who are over 32 years old.

players23 %>% 
  filter(Age > 32)

# A tibble: 71 × 31
      Rk Player      Pos     Age Tm        G    GS    MP    FG   FGA `FG%`  `3P`
   <dbl> <chr>       <chr> <dbl> <chr> <dbl> <dbl> <dbl> <dbl> <dbl> <dbl> <dbl>
 1    34 Nicolas Ba… PF       35 TOT      37    29   882    72   140 0.514    46
 2    34 Nicolas Ba… PF       35 LAC       3     0    54     3     8 0.375     2
 3    34 Nicolas Ba… PF       35 PHI      34    29   828    69   132 0.523    44
 4    41 Patrick Be… PG       35 TOT      53     5  1011   112   266 0.421    40
 5    41 Patrick Be… PG       35 PHI      47     5   919   104   241 0.432    35
 6    41 Patrick Be… PG       35 MIL       6     0    92     8    25 0.32      5
 7    49 Bojan Bogd… PF-SF    34 TOT      32    27  1019   219   468 0.468    96
 8    49 Bojan Bogd… PF       34 DET      28    27   921   199   425 0.468    86
 9    49 Bojan Bogd… SF       34 NYK       4     0    98    20    43 0.465    10
10    79 Jimmy Butl… PF       34 MIA      38    38  1281   255   508 0.502    38
# ℹ 61 more rows
# ℹ 19 more variables: `3PA` <dbl>, `3P%` <dbl>, `2P` <dbl>, `2PA` <dbl>,
#   `2P%` <dbl>, `eFG%` <dbl>, FT <dbl>, FTA <dbl>, `FT%` <dbl>, ORB <dbl>,
#   DRB <dbl>, TRB <dbl>, AST <dbl>, STL <dbl>, BLK <dbl>, TOV <dbl>, PF <dbl>,
#   PTS <dbl>, `Player-additional` <chr>
…
Great, we have our PPG for each player, but now let’s save this to our dataframe for future use, which is not automatically done.

players23 = players23 %>% 
  mutate(ppg = PTS / G)

Group By and Summarise

group_by() and summarise() (or summarize()) can be used together to calculate summary statistics across groups. This can be really powerful, and be done very efficiently in using R. Understanding and using these functions might be less intuitive than the others, but once mastered can prove to be very helpful. Let’s say we want to get the FT% for every team this season.

team_ft_pct = players23 %>% 
  group_by(Tm) %>%
  summarize(team_ft_pct = sum(FT) / sum(FTA))
team_ft_pct

# A tibble: 31 × 2
   Tm    team_ft_pct
   <chr>       <dbl>
 1 ATL         0.812
 2 BOS         0.807
 3 BRK         0.760
 4 CHI         0.794
 5 CHO         0.784
 6 CLE         0.769
 7 DAL         0.756
 8 DEN         0.756
 9 DET         0.773
10 GSW         0.788
# ℹ 21 more rows
…
